{
    "basename": "cpp-do_concurrent_reduce-373b02e",
    "cmd": "lfortran --no-color --show-cpp {infile}",
    "infile": "tests/do_concurrent_reduce.f90",
    "infile_hash": "44ebdebb05b853f4680c203c3b2b0e98e9285d1f3923ecbc255bc105",
    "outfile": null,
    "outfile_hash": null,
    "stdout": "cpp-do_concurrent_reduce-373b02e.stdout",
    "stdout_hash": "b570140f8062472c215c4209fb7683bb8b228ef8a19086db926cd389",
    "stderr": null,
    "stderr_hash": null,
    "returncode": 0
}